# WaveFront *.obj file (generated by CINEMA 4D)

mtllib skybox.mtl

g W_rfel
usemtl sky
v -100 -100 100
v -100 100 100
v 100 -100 100
v 100 100 100
v 100 -100 -100
v 100 100 -100
v -100 -100 -100
v -100 100 -100

vt 0.250744 0.333792 0
vt 0.250744 0.666208 0
vt 0.499851 0.333792 0
vt 0.499851 0.666208 0
vt 0.499851 0.001377 0
vt 0.748958 0.333792 0
vt 0.499851 0.998623 0
vt 0.748958 0.666208 0
vt 0.250744 0.001377 0
vt 0.001637 0.333792 0
vt 0.998065 0.333792 0
vt 0.250744 0.998623 0
vt 0.001637 0.666208 0
vt 0.998065 0.666208 0

f 1/1 2/2 4/4 3/3 
f 3/3 4/4 6/8 5/6 
f 5/6 6/8 8/14 7/11 
f 7/10 8/13 2/2 1/1 
f 2/2 8/12 6/7 4/4 
f 7/9 1/1 3/3 5/5 

